<?xml version="1.0" encoding="UTF-8" standalone="no"?>
<!-- Created with Inkscape (http://www.inkscape.org/) -->
<svg xmlns:dc="http://purl.org/dc/elements/1.1/" xmlns:cc="http://creativecommons.org/ns#" xmlns:rdf="http://www.w3.org/1999/02/22-rdf-syntax-ns#" xmlns:svg="http://www.w3.org/2000/svg" xmlns="http://www.w3.org/2000/svg" xmlns:sodipodi="http://sodipodi.sourceforge.net/DTD/sodipodi-0.dtd" xmlns:inkscape="http://www.inkscape.org/namespaces/inkscape" width="41.778404mm" height="25.848949mm" viewBox="0 0 41.778404 25.848949" version="1.1" id="svg8" inkscape:version="0.92.3 (unknown)" sodipodi:docname="aws-icon.svg"><link xmlns="" type="text/css" id="dark-mode" rel="stylesheet" href=""/><style xmlns="" type="text/css" id="dark-mode-custom-style"/>
  <defs id="defs2"/>
  <sodipodi:namedview id="base" pagecolor="#ffffff" bordercolor="#666666" borderopacity="1.0" inkscape:pageopacity="0.0" inkscape:pageshadow="2" inkscape:zoom="0.5" inkscape:cx="692.54271" inkscape:cy="-243.2888" inkscape:document-units="mm" inkscape:current-layer="layer1" showgrid="false" fit-margin-top="0" fit-margin-left="0" fit-margin-right="0" fit-margin-bottom="0" inkscape:window-width="2481" inkscape:window-height="1413" inkscape:window-x="79" inkscape:window-y="27" inkscape:window-maximized="1"/>
  <metadata id="metadata5">
    <rdf:RDF>
      <cc:Work rdf:about="">
        <dc:format>image/svg+xml</dc:format>
        <dc:type rdf:resource="http://purl.org/dc/dcmitype/StillImage"/>
        <dc:title/>
      </cc:Work>
    </rdf:RDF>
  </metadata>
  <g inkscape:label="Layer 1" inkscape:groupmode="layer" id="layer1" transform="translate(-83.702906,-82.75545)">
    <path style="fill:#808080;fill-opacity:1;stroke-width:0.01632259" d="m 91.626043,108.58904 c -2.64388,-0.15009 -5.16609,-1.46309 -6.66008,-3.46705 -0.73772,-0.98954 -1.1618,-2.05706 -1.24894,-3.14385 -0.0274,-0.34166 -0.0124,-1.42577 0.0234,-1.69581 0.11125,-0.837974 0.35862,-1.619838 0.7798,-2.464704 0.28007,-0.561827 0.52856,-0.965177 0.88995,-1.444552 0.28211,-0.374193 0.47467,-0.594292 0.82828,-0.946708 0.58959,-0.587585 1.16129,-1.008601 1.82919,-1.347057 0.31179,-0.158002 0.48589,-0.231161 0.81203,-0.341247 l 0.22441,-0.07575 0.007,-0.497234 c 0.007,-0.517202 0.0306,-0.830962 0.099,-1.315037 0.37415,-2.647494 1.76729,-5.074097 3.88101,-6.760025 1.54475,-1.232115 3.37779,-2.004831 5.34986,-2.255232 0.75828,-0.09628 1.666467,-0.105439 2.448397,-0.02467 2.18574,0.225741 4.22591,1.109638 5.90878,2.559959 0.24546,0.211549 0.73792,0.698205 0.9741,0.962641 0.63538,0.711371 1.13611,1.448802 1.5752,2.319784 0.0996,0.197502 0.18602,0.357713 0.1921,0.356025 0.006,-0.0017 0.0878,-0.0517 0.1814,-0.111127 0.34887,-0.221319 0.87899,-0.462066 1.28843,-0.585124 1.05623,-0.317455 2.19883,-0.308735 3.24744,0.02478 0.59519,0.189302 1.23241,0.532537 1.73911,0.936749 0.2384,0.190174 0.66652,0.622587 0.84741,0.85589 0.68925,0.888959 1.0639,1.87053 1.14476,2.999277 0.008,0.11086 0.0167,0.150985 0.0329,0.150985 0.0721,0 0.56765,0.07263 0.7806,0.114422 1.94356,0.381441 3.82022,1.609846 5.12415,3.35413 0.84397,1.128985 1.35854,2.330441 1.52401,3.558315 0.0418,0.31067 0.0422,1.60088 5.5e-4,1.90599 -0.16374,1.19795 -0.68913,2.309 -1.58023,3.34174 -0.21853,0.25326 -0.66592,0.69621 -0.90437,0.89541 -1.54104,1.28729 -3.41495,2.024 -5.4436,2.14009 -0.34492,0.0197 -25.547647,0.0188 -25.895797,-7.5e-4 z m 21.439747,-3.53343 c 1.41436,-0.16364 2.26096,-0.86899 2.50524,-2.08724 0.0598,-0.29796 0.0798,-0.57251 0.0682,-0.93788 -0.0108,-0.34323 -0.04,-0.54249 -0.11657,-0.79344 -0.19906,-0.65262 -0.67869,-1.14445 -1.45494,-1.491951 -0.0988,-0.04422 -0.49427,-0.194839 -0.8787,-0.334641 -0.38443,-0.139803 -0.77695,-0.287536 -0.87226,-0.328306 -0.61401,-0.262636 -0.96832,-0.580573 -1.11348,-0.999224 -0.13807,-0.398135 -0.0891,-0.995598 0.11129,-1.358916 0.0896,-0.162532 0.2901,-0.352098 0.46163,-0.436595 0.25229,-0.124269 0.56874,-0.172197 0.89975,-0.136264 0.3525,0.03826 0.5962,0.141862 0.7899,0.33579 0.23709,0.237378 0.35051,0.5899 0.35063,1.089925 v 0.175469 h 0.78578 0.78577 l -0.009,-0.346855 c -0.0101,-0.388574 -0.0444,-0.630523 -0.12782,-0.901825 -0.2413,-0.784502 -0.81929,-1.272694 -1.7194,-1.452241 -0.32399,-0.06463 -0.50243,-0.08025 -0.91504,-0.08008 -0.44941,1.85e-4 -0.69019,0.02634 -1.02832,0.111715 -0.72492,0.183059 -1.24434,0.527964 -1.60102,1.063142 -0.33477,0.502288 -0.4853,1.208858 -0.41374,1.942005 0.10355,1.060897 0.62356,1.708644 1.76834,2.202682 0.16721,0.0721 0.85577,0.31669 1.40532,0.49908 0.78573,0.26077 1.15796,0.62099 1.28962,1.24804 0.0424,0.20177 0.0505,0.55571 0.0169,0.73353 -0.0562,0.29727 -0.1858,0.54764 -0.38448,0.74268 -0.32121,0.31533 -0.78277,0.45214 -1.32616,0.39309 -0.5546,-0.0603 -0.92017,-0.28635 -1.13709,-0.70322 -0.14436,-0.27741 -0.19568,-0.51948 -0.20849,-0.98343 l -0.01,-0.33871 h -0.7813 -0.78131 v 0.28167 c 0,0.93215 0.25717,1.65909 0.76653,2.16682 0.44397,0.44252 1.04439,0.68835 1.83289,0.7504 0.24352,0.0191 0.76647,0.007 1.04053,-0.0253 z m -20.015897,-0.27232 c 0.0176,-0.0651 0.15939,-0.60129 0.31509,-1.19155 l 0.28306,-1.07321 h 1.43739 l 1.43739,1e-5 0.30197,1.19141 0.30197,1.19142 0.8189,1.8e-4 0.81891,1.9e-4 -0.0449,-0.16731 c -0.0247,-0.092 -0.60606,-2.2846 -1.2919,-4.872328 l -1.24697,-4.704994 h -1.00478 -1.00478 l -0.32113,1.122175 c -0.17663,0.617199 -0.80255,2.803958 -1.39093,4.859467 -0.58839,2.05551 -1.06979,3.74306 -1.06979,3.75011 0,0.007 0.36641,0.0128 0.81426,0.0128 h 0.81425 l 0.0321,-0.11834 z m 0.89296,-3.53476 c 0.005,-0.0162 0.26639,-1.08678 0.58054,-2.379021 0.31415,-1.292238 0.57776,-2.36422 0.5858,-2.382176 0.0119,-0.02646 0.0164,-0.028 0.0244,-0.0082 0.014,0.0349 1.1199,4.753537 1.1199,4.778317 0,0.0163 -0.23916,0.0205 -1.16,0.0205 -1.11111,0 -1.15961,-7.5e-4 -1.15065,-0.0295 z m 8.427167,3.23687 c 0.13932,-0.81501 0.25294,-1.4811 0.50257,-2.94622 0.59542,-3.494513 0.67771,-3.972431 0.68537,-3.980091 0.005,-0.0044 0.0112,-0.0051 0.0149,-0.0012 0.004,0.0038 0.0592,0.311647 0.12316,0.684188 0.064,0.372547 0.20747,1.206211 0.31887,1.852583 0.49222,2.85595 0.8243,4.78872 0.8243,4.79763 0,0.005 0.40929,0.008 0.90953,0.005 l 0.90955,-0.005 0.96472,-4.81516 c 0.53059,-2.648352 0.9695,-4.83912 0.97534,-4.868384 l 0.0106,-0.0532 -0.77838,0.0043 -0.77836,0.0043 -0.0527,0.310129 c -0.0762,0.448962 -0.73699,4.393187 -0.99545,5.941425 -0.12138,0.72718 -0.22461,1.33315 -0.22937,1.34662 -0.007,0.0195 -0.0115,0.0179 -0.0226,-0.008 -0.008,-0.018 -0.30495,-1.71469 -0.66058,-3.770521 -0.35563,-2.055835 -0.65065,-3.758144 -0.6556,-3.782914 l -0.009,-0.04504 -0.8254,0.0043 -0.8254,0.0043 -0.1179,0.693711 c -0.0648,0.38154 -0.2393,1.406193 -0.3877,2.277003 -0.14838,0.870813 -0.38483,2.259051 -0.52545,3.084971 -0.14062,0.82593 -0.25854,1.50473 -0.26204,1.50848 -0.02,0.0214 -0.028,-0.0181 -0.1518,-0.74948 -0.24291,-1.43486 -1.14591,-6.739683 -1.15376,-6.777958 l -0.009,-0.04489 h -0.792127 -0.79212 l 0.009,0.03673 c 0.005,0.02019 0.42863,2.196205 0.94148,4.835558 0.512837,2.63936 0.936407,4.81543 0.941247,4.83571 l 0.009,0.0369 0.9078,-0.005 0.90781,-0.005 z" id="path21" inkscape:connector-curvature="0"/>
  </g>
</svg>